EESchema Schematic File Version 4
EELAYER 30 0
EELAYER END
$Descr A4 11693 8268
encoding utf-8
Sheet 1 2
Title "Applix 1616 EPROM Card"
Date "24 oct 2017"
Rev "2.2"
Comp "JMOS"
Comment1 ""
Comment2 ""
Comment3 ""
Comment4 ""
$EndDescr
$Sheet
S 1850 2800 1150 1300
U 5EE7BC84
F0 "Buffer" 50
F1 "debug_01.sch" 50
$EndSheet
$EndSCHEMATC
