EESchema Schematic File Version 4
EELAYER 30 0
EELAYER END
$Descr A4 11693 8268
encoding utf-8
Sheet 2 2
Title ""
Date ""
Rev ""
Comp ""
Comment1 ""
Comment2 ""
Comment3 ""
Comment4 ""
$EndDescr
$Comp
L applix:Applix-Expansion-card J1
U 1 1 5EE78D8E
P 5000 1500
F 0 "J1" H 5750 1787 60  0000 C CNN
F 1 "Applix-Expansion-card" H 5750 1681 60  0000 C CNN
F 2 "" H 4650 1700 60  0000 C CNN
F 3 "" H 4650 1700 60  0000 C CNN
	1    5000 1500
	1    0    0    -1  
$EndComp
Wire Wire Line
	6500 1500 6650 1500
Wire Wire Line
	6650 1500 6650 5300
Wire Wire Line
	5000 1500 4850 1500
Wire Wire Line
	4850 1500 4850 5300
$Comp
L power:GND #PWR?
U 1 1 5EE91BA4
P 4850 5900
F 0 "#PWR?" H 4850 5650 50  0001 C CNN
F 1 "GND" H 4855 5727 50  0000 C CNN
F 2 "" H 4850 5900 50  0001 C CNN
F 3 "" H 4850 5900 50  0001 C CNN
	1    4850 5900
	1    0    0    -1  
$EndComp
$Comp
L power:GND #PWR?
U 1 1 5EE92122
P 6650 5900
F 0 "#PWR?" H 6650 5650 50  0001 C CNN
F 1 "GND" H 6655 5727 50  0000 C CNN
F 2 "" H 6650 5900 50  0001 C CNN
F 3 "" H 6650 5900 50  0001 C CNN
	1    6650 5900
	1    0    0    -1  
$EndComp
Wire Wire Line
	6500 5300 6650 5300
Connection ~ 6650 5300
Wire Wire Line
	6650 5300 6650 5900
Wire Wire Line
	5000 5300 4850 5300
Connection ~ 4850 5300
Wire Wire Line
	4850 5300 4850 5900
Wire Wire Line
	5000 1600 4800 1600
Wire Wire Line
	4800 1600 4800 1100
Wire Wire Line
	4800 1600 4800 5200
Wire Wire Line
	4800 5200 5000 5200
Connection ~ 4800 1600
Wire Wire Line
	6500 5200 6700 5200
Wire Wire Line
	6700 5200 6700 1600
Wire Wire Line
	6700 1600 6500 1600
Wire Wire Line
	6700 1600 6700 1100
Connection ~ 6700 1600
$Comp
L power:+5V #PWR?
U 1 1 5EE9AE05
P 4800 1100
F 0 "#PWR?" H 4800 950 50  0001 C CNN
F 1 "+5V" H 4815 1273 50  0000 C CNN
F 2 "" H 4800 1100 50  0001 C CNN
F 3 "" H 4800 1100 50  0001 C CNN
	1    4800 1100
	1    0    0    -1  
$EndComp
$Comp
L power:+5V #PWR?
U 1 1 5EE9B7AA
P 6700 1100
F 0 "#PWR?" H 6700 950 50  0001 C CNN
F 1 "+5V" H 6715 1273 50  0000 C CNN
F 2 "" H 6700 1100 50  0001 C CNN
F 3 "" H 6700 1100 50  0001 C CNN
	1    6700 1100
	1    0    0    -1  
$EndComp
Wire Wire Line
	5000 1700 4700 1700
Wire Wire Line
	4700 1700 4700 900 
Wire Wire Line
	6500 1700 6800 1700
Wire Wire Line
	6800 1700 6800 900 
$Comp
L power:+12V #PWR?
U 1 1 5EE9EC15
P 6800 900
F 0 "#PWR?" H 6800 750 50  0001 C CNN
F 1 "+12V" H 6815 1073 50  0000 C CNN
F 2 "" H 6800 900 50  0001 C CNN
F 3 "" H 6800 900 50  0001 C CNN
	1    6800 900 
	1    0    0    -1  
$EndComp
$Comp
L power:+12V #PWR?
U 1 1 5EE9FC77
P 4700 900
F 0 "#PWR?" H 4700 750 50  0001 C CNN
F 1 "+12V" H 4715 1073 50  0000 C CNN
F 2 "" H 4700 900 50  0001 C CNN
F 3 "" H 4700 900 50  0001 C CNN
	1    4700 900 
	1    0    0    -1  
$EndComp
$Comp
L power:-12V #PWR?
U 1 1 5EEA21D4
P 4550 800
F 0 "#PWR?" H 4550 900 50  0001 C CNN
F 1 "-12V" H 4565 973 50  0000 C CNN
F 2 "" H 4550 800 50  0001 C CNN
F 3 "" H 4550 800 50  0001 C CNN
	1    4550 800 
	1    0    0    -1  
$EndComp
$Comp
L power:-5V #PWR?
U 1 1 5EEA3280
P 6950 800
F 0 "#PWR?" H 6950 900 50  0001 C CNN
F 1 "-5V" H 6965 973 50  0000 C CNN
F 2 "" H 6950 800 50  0001 C CNN
F 3 "" H 6950 800 50  0001 C CNN
	1    6950 800 
	1    0    0    -1  
$EndComp
Wire Wire Line
	6950 800  6950 1800
Wire Wire Line
	6950 1800 6500 1800
Wire Wire Line
	4550 800  4550 1800
Wire Wire Line
	4550 1800 5000 1800
$EndSCHEMATC
